<?xml version="1.0" encoding="UTF-8" standalone="no"?>
<!-- Created with Inkscape (http://www.inkscape.org/) -->

<svg
   width="27.999826"
   height="27.999788"
   viewBox="0 0 7.4082874 7.4082773"
   version="1.1"
   id="svg1"
   inkscape:version="1.3 (0e150ed6c4, 2023-07-21)"
   sodipodi:docname="irish-railway.svg"
   xml:space="preserve"
   xmlns:inkscape="http://www.inkscape.org/namespaces/inkscape"
   xmlns:sodipodi="http://sodipodi.sourceforge.net/DTD/sodipodi-0.dtd"
   xmlns="http://www.w3.org/2000/svg"
   xmlns:svg="http://www.w3.org/2000/svg"><sodipodi:namedview
     id="namedview1"
     pagecolor="#ffffff"
     bordercolor="#000000"
     borderopacity="0.25"
     inkscape:showpageshadow="2"
     inkscape:pageopacity="0.0"
     inkscape:pagecheckerboard="0"
     inkscape:deskcolor="#d1d1d1"
     inkscape:document-units="px"
     inkscape:zoom="16"
     inkscape:cx="4.875"
     inkscape:cy="-1.6875"
     inkscape:window-width="1920"
     inkscape:window-height="1011"
     inkscape:window-x="0"
     inkscape:window-y="0"
     inkscape:window-maximized="1"
     inkscape:current-layer="layer1"
     showgrid="false"><inkscape:grid
       id="grid6"
       units="px"
       originx="0"
       originy="0"
       spacingx="0.26458333"
       spacingy="0.26458333"
       empcolor="#0099e5"
       empopacity="0.30196078"
       color="#0099e5"
       opacity="0.14901961"
       empspacing="5"
       dotted="false"
       gridanglex="30"
       gridanglez="30"
       visible="false" /></sodipodi:namedview><defs
     id="defs1"><linearGradient
       id="LtGn"
       x1="1"
       x2="167"
       y1="167"
       y2="1"
       gradientUnits="userSpaceOnUse"><stop
         offset="0%"
         stop-color="#608c2a"
         id="stop1" /><stop
         offset="100%"
         stop-color="#c0d080"
         id="stop2" /></linearGradient><linearGradient
       id="DkGn"
       x1="1"
       x2="1"
       y1="167"
       y2="333"
       gradientUnits="userSpaceOnUse"><stop
         offset="0%"
         stop-color="#3e6f15"
         id="stop3" /><stop
         offset="100%"
         stop-color="#2b5933"
         id="stop4" /></linearGradient><linearGradient
       id="Gray"
       x1="236.17366"
       x2="470.93312"
       y1="0.70710678"
       y2="235.46656"
       gradientTransform="scale(0.70710678,1.4142136)"
       gradientUnits="userSpaceOnUse"><stop
         offset="0%"
         stop-color="#6e6e6e"
         id="stop5" /><stop
         offset="100%"
         stop-color="#fcfcfc"
         id="stop6" /></linearGradient><linearGradient
       id="LtOr"
       x1="333"
       x2="499"
       y1="1"
       y2="1"
       gradientUnits="userSpaceOnUse"><stop
         offset="0%"
         stop-color="#f0b000"
         id="stop7" /><stop
         offset="100%"
         stop-color="#f96600"
         id="stop8" /></linearGradient><linearGradient
       id="DkOr"
       x1="499"
       x2="333"
       y1="333"
       y2="333"
       gradientUnits="userSpaceOnUse"><stop
         offset="0%"
         stop-color="#e45300"
         id="stop9" /><stop
         offset="100%"
         stop-color="#f99e00"
         id="stop10" /></linearGradient></defs><g
     inkscape:label="Layer 1"
     inkscape:groupmode="layer"
     id="layer1"
     transform="translate(-105.83333,-79.904152)"><rect
       style="fill:#ffffff;stroke-width:0.264581;stroke-linecap:round;stroke-linejoin:round"
       id="rect2"
       width="7.4082875"
       height="7.4082775"
       x="105.83333"
       y="79.904152"
       rx="1.5875" /><g
       stroke="none"
       id="g14"
       transform="matrix(0.01381368,0,0,0.01381368,106.08405,81.301406)"
       style="stroke-width:19.1538"><path
         d="M 1,167 H 167 V 1 Z"
         fill="url(#LtGn)"
         id="path10"
         style="fill:url(#LtGn);stroke-width:19.1538" /><path
         d="M 1,167 H 167 V 333 Z"
         fill="url(#DkGn)"
         id="path11"
         style="fill:url(#DkGn);stroke-width:19.1538" /><path
         d="M 167,1 V 167 L 333,333 V 167 Z"
         fill="url(#Gray)"
         id="path12"
         style="fill:url(#Gray);stroke-width:19.1538" /><path
         d="M 499,167 H 333 V 1 Z"
         fill="url(#LtOr)"
         id="path13"
         style="fill:url(#LtOr);stroke-width:19.1538" /><path
         d="M 499,167 H 333 v 166 z"
         fill="url(#DkOr)"
         id="path14"
         style="fill:url(#DkOr);stroke-width:19.1538" /></g></g></svg>
